…
homicide_prop = left_join(total, unsolved)
```

    ## Joining, by = "city_state"

``` r
homicide_prop
```

    ## # A tibble: 50 × 3
    ##    city_state      n_total n_unsolved
    ##    <chr>             <int>      <int>
    ##  1 Albuquerque, NM     378        146
    ##  2 Atlanta, GA         973        373
    ##  3 Baltimore, MD      2827       1825
    ##  4 Baton Rouge, LA     424        196
    ##  5 Birmingham, AL      800        347
    ##  6 Boston, MA          614        310
    ##  7 Buffalo, NY         521        319
    ##  8 Charlotte, NC       687        206
    ##  9 Chicago, IL        5535       4073
    ## 10 Cincinnati, OH      694        309
    ## # … with 40 more rows
…
Run `prop.test` for each city.

``` r
homicide_test = 
  homicide_prop %>%
  mutate(
    prop_test = map2(.x = n_unsolved, .y = n_total, ~prop.test(x = .x, n = .y, alternative = "two.sided", conf.level = 0.95)),
    test_stats = map(prop_test, broom::tidy)) %>% 
  unnest(cols = test_stats) %>% 
  select(city_state, n_total, n_unsolved, estimate, conf.low, conf.high )

homicide_test
```

    ## # A tibble: 50 × 6
    ##    city_state      n_total n_unsolved estimate conf.low conf.high
    ##    <chr>             <int>      <int>    <dbl>    <dbl>     <dbl>
    ##  1 Albuquerque, NM     378        146    0.386    0.337     0.438
    ##  2 Atlanta, GA         973        373    0.383    0.353     0.415
    ##  3 Baltimore, MD      2827       1825    0.646    0.628     0.663
    ##  4 Baton Rouge, LA     424        196    0.462    0.414     0.511
    ##  5 Birmingham, AL      800        347    0.434    0.399     0.469
    ##  6 Boston, MA          614        310    0.505    0.465     0.545
    ##  7 Buffalo, NY         521        319    0.612    0.569     0.654
    ##  8 Charlotte, NC       687        206    0.300    0.266     0.336
    ##  9 Chicago, IL        5535       4073    0.736    0.724     0.747
    ## 10 Cincinnati, OH      694        309    0.445    0.408     0.483
    ## # … with 40 more rows
…
